<svg width="25" height="25" viewBox="0 0 25 25" fill="none" xmlns="http://www.w3.org/2000/svg">
<g id="SVG" clip-path="url(#clip0_168_2016)">
<g id="Group">
<path id="Vector" d="M12.421 24.9444C19.0457 24.9444 24.4162 19.574 24.4162 12.9492C24.4162 6.32447 19.0457 0.954041 12.421 0.954041C5.79622 0.954041 0.425781 6.32447 0.425781 12.9492C0.425781 19.574 5.79622 24.9444 12.421 24.9444Z" fill="black" fill-opacity="0.2"/>
<path id="Vector_2" d="M17.6256 11.7428C17.7977 11.9149 17.9011 12.1439 17.9163 12.3868C17.9316 12.6298 17.8577 12.8699 17.7085 13.0622L17.6256 13.1562L12.6276 18.1542C12.4477 18.3335 12.2063 18.4376 11.9525 18.4453C11.6986 18.4531 11.4513 18.3639 11.2608 18.1959C11.0703 18.028 10.9509 17.7938 10.9268 17.541C10.9028 17.2882 10.9758 17.0356 11.1312 16.8347L11.2141 16.7408L15.5044 12.4495L11.2141 8.1582C11.042 7.98608 10.9386 7.75707 10.9234 7.51414C10.9081 7.27122 10.982 7.03106 11.1312 6.83873L11.2141 6.74477C11.3863 6.57266 11.6153 6.46927 11.8582 6.454C12.1011 6.43872 12.3413 6.51261 12.5336 6.6618L12.6276 6.74477L17.6256 11.7428Z" fill="black"/>
<path id="Vector_3" d="M17.9187 12.4495C17.9187 12.6943 17.8288 12.9306 17.6661 13.1136C17.5034 13.2966 17.2792 13.4134 17.0361 13.4421L16.9191 13.4491H6.4233C6.16852 13.4488 5.92346 13.3513 5.7382 13.1764C5.55294 13.0015 5.44146 12.7624 5.42652 12.5081C5.41159 12.2537 5.49434 12.0033 5.65787 11.8079C5.82139 11.6125 6.05335 11.487 6.30634 11.4569L6.4233 11.4499H16.9191C17.1842 11.4499 17.4385 11.5552 17.6259 11.7427C17.8134 11.9301 17.9187 12.1844 17.9187 12.4495Z" fill="black"/>
</g>
</g>
<defs>
<clipPath id="clip0_168_2016">
<rect width="23.9904" height="23.9904" fill="white" transform="translate(0.425781 0.954041)"/>
</clipPath>
</defs>
</svg>
