<svg width="10" height="16" viewBox="0 0 10 16" fill="none" xmlns="http://www.w3.org/2000/svg">
<rect width="10" height="16" fill="#A19FAD"/>
<g id="HOME 2" clip-path="url(#clip0_156_94)">
<rect width="1920" height="1080" transform="translate(-15 -16)" fill="black"/>
<g id="div.h2d-3d4e3ec8">
<g id="Tools Bar">
<mask id="path-1-inside-1_156_94" fill="white">
<path d="M-15 -16H1905V36H-15V-16Z"/>
</mask>
<path d="M-15 -16H1905V36H-15V-16Z" fill="#00293B"/>
<g id="div.flex">
<g id="div.flex_2">
<g id="SVG">
<path id="Vector" fill-rule="evenodd" clip-rule="evenodd" d="M0.200012 8L8.62081 0L9.80001 1.12L2.55841 8L9.80001 14.88L8.62081 16L0.200012 8Z" fill="#A2DADD"/>
</g>
</g>
</g>
<path d="M1905 32H-15V40H1905V32Z" fill="black" mask="url(#path-1-inside-1_156_94)"/>
</g>
</g>
</g>
<defs>
<clipPath id="clip0_156_94">
<rect width="1920" height="1080" fill="white" transform="translate(-15 -16)"/>
</clipPath>
</defs>
</svg>
