<svg width="17" height="17" viewBox="0 0 17 17" fill="none" xmlns="http://www.w3.org/2000/svg">
<g clip-path="url(#clip0_161_1076)">
<path d="M9.76996 2.44995L11.18 3.85995L6.59996 8.44995L11.18 13.04L9.76996 14.45L3.76996 8.44995L9.76996 2.44995Z" fill="white"/>
</g>
<defs>
<clipPath id="clip0_161_1076">
<rect width="16" height="16" fill="white" transform="translate(0.179932 0.449951)"/>
</clipPath>
</defs>
</svg>
